%YAML 1.1
%TAG !u! tag:unity3d.com,2011:
--- !u!114 &11400000
MonoBehaviour:
  m_ObjectHideFlags: 0
  m_CorrespondingSourceObject: {fileID: 0}
  m_PrefabInstance: {fileID: 0}
  m_PrefabAsset: {fileID: 0}
  m_GameObject: {fileID: 0}
  m_Enabled: 1
  m_EditorHideFlags: 0
  m_Script: {fileID: 11500000, guid: 468a46d0ae32c3544b7d98094e6448a9, type: 3}
  m_Name: AddressableAssetSettings
  m_EditorClassIdentifier: 
  m_DefaultGroup: 78ff7d8be86fbea48a25ff63c82d9f53
  m_BuildRemoteCatalog: 1
  m_DisableCatalogUpdateOnStart: 0
  m_UniqueBundleIds: 0
  m_RemoteCatalogBuildPath:
    m_Id: 7183dbc8a91d3934ab34fe2296f8c24e
  m_RemoteCatalogLoadPath:
    m_Id: d7a7bc0a086b77a409887b20fac0088a
  m_overridePlayerVersion: 
  m_GroupAssets:
  - {fileID: 11400000, guid: b78cbcac1e2dd22459772a8761dcbb91, type: 2}
  - {fileID: 11400000, guid: 3988782ebef7d7544b3d6870bdcf1497, type: 2}
  m_BuildSettings:
    m_CompileScriptsInVirtualMode: 0
    m_CleanupStreamingAssetsAfterBuilds: 1
    m_LogResourceManagerExceptions: 1
    m_BundleBuildPath: Temp/com.unity.addressables/AssetBundles
  m_ProfileSettings:
    m_Profiles:
    - m_InheritedParent: 
      m_Id: 17b3672e9490e924fbd4478659a121e5
      m_ProfileName: Default
      m_Values:
      - m_Id: f32e39052f5540743a3e808c8fb8b3a0
        m_Value: '[UnityEditor.EditorUserBuildSettings.activeBuildTarget]'
      - m_Id: a6befce377452254b911a9d96b4f3b89
        m_Value: '[UnityEngine.AddressableAssets.Addressables.BuildPath]/[BuildTarget]'
      - m_Id: 8e3eeaecd720f6a409da6a207bf35cf0
        m_Value: '{UnityEngine.AddressableAssets.Addressables.RuntimePath}/[BuildTarget]'
      - m_Id: 7183dbc8a91d3934ab34fe2296f8c24e
        m_Value: ServerData/[BuildTarget]
      - m_Id: d7a7bc0a086b77a409887b20fac0088a
        m_Value: http://localhost/[BuildTarget]
    - m_InheritedParent: 
      m_Id: d14d01845d4f41e449a43d2a9bb089b0
      m_ProfileName: Localhost
      m_Values:
      - m_Id: f32e39052f5540743a3e808c8fb8b3a0
        m_Value: '[UnityEditor.EditorUserBuildSettings.activeBuildTarget]'
      - m_Id: a6befce377452254b911a9d96b4f3b89
        m_Value: '[UnityEngine.AddressableAssets.Addressables.BuildPath]/[BuildTarget]'
      - m_Id: 8e3eeaecd720f6a409da6a207bf35cf0
        m_Value: '{UnityEngine.AddressableAssets.Addressables.RuntimePath}/[BuildTarget]'
      - m_Id: 7183dbc8a91d3934ab34fe2296f8c24e
        m_Value: ServerData/[BuildTarget]
      - m_Id: d7a7bc0a086b77a409887b20fac0088a
        m_Value: http://192.168.1.92/RemoteAssets/[BuildTarget]
    m_ProfileEntryNames:
    - m_Id: f32e39052f5540743a3e808c8fb8b3a0
      m_Name: BuildTarget
      m_InlineUsage: 0
    - m_Id: a6befce377452254b911a9d96b4f3b89
      m_Name: LocalBuildPath
      m_InlineUsage: 0
    - m_Id: 8e3eeaecd720f6a409da6a207bf35cf0
      m_Name: LocalLoadPath
      m_InlineUsage: 0
    - m_Id: 7183dbc8a91d3934ab34fe2296f8c24e
      m_Name: RemoteBuildPath
      m_InlineUsage: 0
    - m_Id: d7a7bc0a086b77a409887b20fac0088a
      m_Name: RemoteLoadPath
      m_InlineUsage: 0
    m_ProfileVersion: 1
  m_LabelTable:
    m_LabelNames:
    - default
    - StallObject
  m_SchemaTemplates: []
  m_GroupTemplateObjects:
  - {fileID: 11400000, guid: 0b6f0c60ce7d8bc429227bc5f1532166, type: 2}
  m_InitializationObjects: []
  m_CertificateHandlerType:
    m_AssemblyName: 
    m_ClassName: 
  m_ActivePlayerDataBuilderIndex: 3
  m_DataBuilders:
  - {fileID: 11400000, guid: 62c6098a66834f24ba3303c9765a3b5a, type: 2}
  - {fileID: 11400000, guid: 2bcf6d6f36f9e584687f40b33b4e8670, type: 2}
  - {fileID: 11400000, guid: 6f7db69157ddcd9439feb77e8f1b4a4b, type: 2}
  - {fileID: 11400000, guid: 9da8fc97712bf8b45aaef2620816b3b2, type: 2}
  m_ActiveProfileId: d14d01845d4f41e449a43d2a9bb089b0
  m_HostingServicesManager:
    m_HostingServiceInfos:
    - classRef: UnityEditor.AddressableAssets.HostingServices.HttpHostingService,
        Unity.Addressables.Editor
      dataStore:
        m_SerializedData:
        - m_AssemblyName: mscorlib, Version=4.0.0.0, Culture=neutral, PublicKeyToken=b77a5c561934e089
          m_ClassName: System.Int32
          m_Data: 0
          m_Key: HostingServicePort
        - m_AssemblyName: mscorlib, Version=4.0.0.0, Culture=neutral, PublicKeyToken=b77a5c561934e089
          m_ClassName: System.String
          m_Data: Library/com.unity.addressables/StreamingAssetsCopy/aa/Android/Android;ServerData/Android
          m_Key: ContentRoot
        - m_AssemblyName: mscorlib, Version=4.0.0.0, Culture=neutral, PublicKeyToken=b77a5c561934e089
          m_ClassName: System.Boolean
          m_Data: False
          m_Key: IsEnabled
        - m_AssemblyName: mscorlib, Version=4.0.0.0, Culture=neutral, PublicKeyToken=b77a5c561934e089
          m_ClassName: System.String
          m_Data: Local Hosting 0
          m_Key: DescriptiveName
        - m_AssemblyName: mscorlib, Version=4.0.0.0, Culture=neutral, PublicKeyToken=b77a5c561934e089
          m_ClassName: System.Int32
          m_Data: 0
          m_Key: InstanceId
    m_Settings: {fileID: 11400000}
    m_NextInstanceId: 1
    m_RegisteredServiceTypeRefs:
    - UnityEditor.AddressableAssets.HostingServices.HttpHostingService, Unity.Addressables.Editor
